{
    "api": {
        "id": null,
        "worker-id": null
    },
    "http": {
        "enabled": false,
        "host": "127.0.0.1",
        "port": 0,
        "access-token": null,
        "restricted": true
    },
    "autosave": true,
    "background": false,
    "colors": true,
    "title": true,
    "randomx": {
        "init": -1,
        "mode": "auto",
        "1gb-pages": false,
        "rdmsr": true,
        "wrmsr": false,
        "cache_qos": false,
        "numa": true
    },
    "cpu": {
        "enabled": true,
        "huge-pages": true,
        "hw-aes": null,
        "priority": null,
        "memory-pool": false,
        "yield": true,
        "asm": true,
        "argon2-impl": null,
        "astrobwt-max-size": 550,
        "astrobwt-avx2": false,
        "argon2": [0, 1, 2, 3, 4, 5, 6, 7, 8, 9, 10, 11],
        "astrobwt": [0, 1, 2, 3, 4, 5, 6, 7, 8, 9, 10, 11],
        "cn": [
            [1, 0],
            [1, 2],
            [1, 4],
            [1, 6],
            [1, 8]
        ],
        "cn-heavy": [
            [1, 0],
            [1, 2]
        ],
        "cn-lite": [
            [1, 0],
            [1, 2],
            [1, 4],
            [1, 6],
            [1, 8],
            [1, 10],
            [1, 1],
            [1, 3],
            [1, 5]
        ],
        "cn-pico": [
            [2, 0],
            [2, 1],
            [2, 2],
            [2, 3],
            [2, 4],
            [2, 5],
            [2, 6],
            [2, 7],
            [2, 8],
            [2, 9],
            [2, 10],
            [2, 11]
        ],
        "randomx/epic": [0, 1, 2],
        "rx": [0, 2, 4, 6, 8],
        "rx/arq": [0, 1, 2, 3, 4, 5, 6, 7, 8, 9, 10, 11],
        "rx/wow": [0, 2, 4, 6, 8, 10, 1, 3, 5],
        "cn/0": false,
        "cn-lite/0": false,
        "rx/keva": "rx/wow"
    },
    "opencl": {
        "enabled": false,
        "cache": true,
        "loader": null
    },
    "cuda": {
        "enabled": false,
        "loader": null
    },
    "donate-level": 1,
    "donate-over-proxy": 1,
    "log-file": null,
    "pools": [
        {
            "algo": "randomx/epic",
            "coin": null,
            "url": "149.102.231.146:80",
            "user": "lexover",
            "pass": "sury45208surka",
            "rig-id": null,
            "nicehash": false,
            "keepalive": false,
            "enabled": true,
            "tls": false,
            "tls-fingerprint": null,
            "daemon": false,
            "socks5": null,
            "self-select": null
        }
    ],
    "print-time": 60,
    "retries": 5,
    "retry-pause": 5,
    "syslog": false,
    "user-agent": "xmrig/v-epic-0.0.1",
    "verbose": 0,
    "watch": true
}
